Designator, Mid X, Mid Y, Layer, Rotation.
# PcbXY Version 1.0,mm,mm,,
# Date: Mon 08 Jun 2020 06:29:58 PM GMT UTC,mm,mm,,
# Author: ld,mm,mm,,
# Title: (unknown) - PCB X-Y,mm,mm,,
# RefDes, Xmm, Ymm, top/bottom, rotation
# X,mm,mm,,
# --------------------------------------------,mm,mm,,
