Designator, Mid X, Mid Y, Layer, Rotation.
Q3,18.00mm,75.19mm,T,270
Q1,18.00mm,89.59mm,T,270
Q2,18.00mm,82.39mm,T,270
Q4,18.00mm,67.99mm,T,270
Q5,18.00mm,60.79mm,T,270
(unknown),18.25mm,195.00mm,B,180
U2,18.25mm,195.00mm,T,270
R2,19.50mm,184.75mm,T,180
C40,14.00mm,102.15mm,T,90
U1,20.12mm,102.29mm,T,90
CONN1,17.98mm,8.00mm,T,90
LED22,3.51mm,176.50mm,T,270
LED26,3.51mm,229.00mm,T,270
LED23,3.51mm,194.50mm,T,270
LED24,3.51mm,206.00mm,T,270
LED25,3.51mm,217.50mm,T,270
LED27,3.51mm,240.50mm,T,270
LED28,3.51mm,252.00mm,T,270
LED29,32.49mm,251.50mm,T,90
LED32,32.49mm,215.50mm,T,90
LED30,32.49mm,239.50mm,T,90
LED31,32.49mm,227.50mm,T,90
LED33,32.49mm,203.50mm,T,90
LED34,32.49mm,191.50mm,T,90
LED35,32.49mm,174.50mm,T,90
LED4,32.49mm,90.50mm,T,90
LED5,32.49mm,78.50mm,T,90
LED6,32.49mm,66.50mm,T,90
LED9,32.49mm,28.50mm,T,90
LED10,32.49mm,11.50mm,T,90
LED11,3.51mm,14.50mm,T,270
LED12,3.51mm,30.50mm,T,270
LED13,3.51mm,42.50mm,T,270
LED14,3.51mm,54.50mm,T,270
LED15,3.51mm,66.50mm,T,270
LED16,3.51mm,78.50mm,T,270
LED17,3.51mm,90.50mm,T,270
LED18,3.51mm,113.50mm,T,270
LED19,3.51mm,125.50mm,T,270
LED20,3.51mm,137.50mm,T,270
LED21,3.51mm,149.50mm,T,270
LED1,32.49mm,149.50mm,T,90
LED2,32.49mm,137.50mm,T,90
LED3,32.49mm,115.50mm,T,90
LED7,32.49mm,55.00mm,T,90
LED8,32.49mm,42.50mm,T,90
C43,16.25mm,202.60mm,T,90
C42,22.50mm,219.00mm,T,180
R1,19.50mm,187.50mm,T,180
R6,14.25mm,215.85mm,T,270
C41,14.25mm,195.00mm,T,90
U4,18.00mm,223.50mm,T,0
U3,18.00mm,216.50mm,T,0
R5,22.50mm,215.50mm,T,180
USB1,32.32mm,160.05mm,T,90
CONN2,18.00mm,176.50mm,T,0
R3,18.75mm,202.85mm,T,270
C8,27.50mm,42.50mm,T,270
C9,27.50mm,28.50mm,T,270
C10,27.50mm,11.50mm,T,270
C29,27.50mm,251.50mm,T,270
C30,27.50mm,239.50mm,T,270
C31,27.50mm,227.50mm,T,270
C32,27.50mm,215.50mm,T,270
C33,27.50mm,203.50mm,T,270
C34,27.50mm,191.50mm,T,270
C35,27.50mm,174.50mm,T,270
C24,8.50mm,206.00mm,T,270
C25,8.50mm,217.50mm,T,270
C26,8.50mm,229.00mm,T,270
C27,8.50mm,240.50mm,T,270
C28,8.50mm,252.00mm,T,270
C23,8.50mm,194.50mm,T,270
C17,8.50mm,90.50mm,T,270
C16,8.50mm,78.50mm,T,270
C15,8.50mm,66.50mm,T,270
C14,8.50mm,54.50mm,T,270
C13,8.50mm,42.50mm,T,270
C12,8.50mm,30.50mm,T,270
C11,8.50mm,14.50mm,T,270
C1,27.50mm,149.50mm,T,270
C2,27.50mm,137.50mm,T,270
C3,27.50mm,115.50mm,T,270
C4,27.50mm,90.50mm,T,270
C5,27.50mm,78.50mm,T,270
C6,27.50mm,66.50mm,T,270
C7,27.50mm,55.00mm,T,270
C18,8.50mm,113.50mm,T,270
C19,8.50mm,125.50mm,T,270
C20,8.50mm,137.50mm,T,270
C21,8.50mm,149.50mm,T,270
C22,8.50mm,176.50mm,T,270
LED37,22.27mm,258.50mm,T,0
LED36,13.73mm,258.50mm,T,0
S2,3.50mm,102.25mm,T,180
S1,32.50mm,102.25mm,T,0
