v 20130925 2
C 39400 57500 1 0 0 switch-spst-1.sym
{
T 39800 58200 5 10 0 0 0 0 1
device=SPST
T 39100 57300 5 10 1 1 0 0 1
refdes=S1
T 39400 57500 5 10 0 0 0 0 1
footprint=smd-pushbutton
T 39400 57300 5 10 1 1 0 0 1
value=Red_button
T 39400 57500 5 10 0 0 0 0 1
lcsc=C127509
T 39400 57500 5 10 0 0 0 0 1
xyrotate=90
}
C 39400 58300 1 0 0 switch-spst-1.sym
{
T 39800 59000 5 10 0 0 0 0 1
device=SPST
T 40100 58100 5 10 1 1 0 0 1
refdes=S2
T 39400 58300 5 10 0 0 0 0 1
footprint=smd-pushbutton
T 40000 58100 5 10 1 1 0 6 1
value=Green_button
T 39400 58300 5 10 0 0 0 0 1
lcsc=C127509
T 39400 58300 5 10 0 0 0 0 1
xyrotate=90
}
N 33700 61100 33700 64700 4
N 33700 59900 33300 59900 4
N 33300 59900 33300 64700 4
C 42400 50100 1 0 0 capacitor-1.sym
{
T 42600 50800 5 10 0 0 0 0 1
device=CAPACITOR
T 42600 51000 5 10 0 0 0 0 1
symversion=0.1
T 42600 50600 5 10 1 1 0 0 1
refdes=C1
T 42400 50100 5 10 0 0 0 0 1
footprint=0603
T 42400 50100 5 10 1 1 0 0 1
value=100nF
T 42400 50100 5 10 0 0 0 0 1
lcsc=C14663
}
C 43300 51800 1 180 0 led-ws2811.sym
{
T 42705 50500 5 10 0 1 180 0 1
footprint=led2811
T 42900 50900 5 10 1 1 180 0 1
refdes=LED1
T 43300 51800 5 10 0 0 0 0 1
value=led-ws2811
T 43300 51800 5 10 0 0 0 0 1
lcsc=C139127
T 43300 51800 5 10 0 0 0 0 1
xyrotate=180
}
C 45000 50100 1 0 0 capacitor-1.sym
{
T 45200 50800 5 10 0 0 0 0 1
device=CAPACITOR
T 45200 51000 5 10 0 0 0 0 1
symversion=0.1
T 45200 50600 5 10 1 1 0 0 1
refdes=C2
T 45000 50100 5 10 0 0 0 0 1
footprint=0603
T 45000 50100 5 10 1 1 0 0 1
value=100nF
T 45000 50100 5 10 0 0 0 0 1
lcsc=C14663
}
C 45900 51800 1 180 0 led-ws2811.sym
{
T 45305 50500 5 10 0 1 180 0 1
footprint=led2811
T 45500 50900 5 10 1 1 180 0 1
refdes=LED2
T 45900 51800 5 10 0 0 0 0 1
value=led-ws2811
T 45900 51800 5 10 0 0 0 0 1
lcsc=C139127
T 45900 51800 5 10 0 0 0 0 1
xyrotate=180
}
C 50000 50000 1 0 0 capacitor-1.sym
{
T 50200 50700 5 10 0 0 0 0 1
device=CAPACITOR
T 50200 50900 5 10 0 0 0 0 1
symversion=0.1
T 50200 50500 5 10 1 1 0 0 1
refdes=C3
T 50000 50000 5 10 0 0 0 0 1
footprint=0603
T 50000 50000 5 10 1 1 0 0 1
value=100nF
T 50000 50000 5 10 0 0 0 0 1
lcsc=C14663
}
C 50900 51800 1 180 0 led-ws2811.sym
{
T 50305 50500 5 10 0 1 180 0 1
footprint=led2811
T 50500 50900 5 10 1 1 180 0 1
refdes=LED3
T 50900 51800 5 10 0 0 0 0 1
value=led-ws2811
T 50900 51800 5 10 0 0 0 0 1
lcsc=C139127
T 50900 51800 5 10 0 0 0 0 1
xyrotate=180
}
C 53000 50000 1 0 0 capacitor-1.sym
{
T 53200 50700 5 10 0 0 0 0 1
device=CAPACITOR
T 53200 50900 5 10 0 0 0 0 1
symversion=0.1
T 53200 50500 5 10 1 1 0 0 1
refdes=C4
T 53000 50000 5 10 0 0 0 0 1
footprint=0603
T 53000 50000 5 10 1 1 0 0 1
value=100nF
T 53000 50000 5 10 0 0 0 0 1
lcsc=C14663
}
C 53900 51800 1 180 0 led-ws2811.sym
{
T 53305 50500 5 10 0 1 180 0 1
footprint=led2811
T 53500 50900 5 10 1 1 180 0 1
refdes=LED4
T 53900 51800 5 10 0 0 0 0 1
value=led-ws2811
T 53900 51800 5 10 0 0 0 0 1
lcsc=C139127
T 53900 51800 5 10 0 0 0 0 1
xyrotate=180
}
C 55500 50000 1 0 0 capacitor-1.sym
{
T 55700 50700 5 10 0 0 0 0 1
device=CAPACITOR
T 55700 50900 5 10 0 0 0 0 1
symversion=0.1
T 55700 50500 5 10 1 1 0 0 1
refdes=C5
T 55500 50000 5 10 0 0 0 0 1
footprint=0603
T 55500 50000 5 10 1 1 0 0 1
value=100nF
T 55500 50000 5 10 0 0 0 0 1
lcsc=C14663
}
C 56400 51800 1 180 0 led-ws2811.sym
{
T 55805 50500 5 10 0 1 180 0 1
footprint=led2811
T 56000 50900 5 10 1 1 180 0 1
refdes=LED5
T 56400 51800 5 10 0 0 0 0 1
value=led-ws2811
T 56400 51800 5 10 0 0 0 0 1
lcsc=C139127
T 56400 51800 5 10 0 0 0 0 1
xyrotate=180
}
C 58000 50000 1 0 0 capacitor-1.sym
{
T 58200 50700 5 10 0 0 0 0 1
device=CAPACITOR
T 58200 50900 5 10 0 0 0 0 1
symversion=0.1
T 58200 50500 5 10 1 1 0 0 1
refdes=C6
T 58000 50000 5 10 0 0 0 0 1
footprint=0603
T 58000 50000 5 10 1 1 0 0 1
value=100nF
T 58000 50000 5 10 0 0 0 0 1
lcsc=C14663
}
C 58900 51800 1 180 0 led-ws2811.sym
{
T 58305 50500 5 10 0 1 180 0 1
footprint=led2811
T 58500 50900 5 10 1 1 180 0 1
refdes=LED6
T 58900 51800 5 10 0 0 0 0 1
value=led-ws2811
T 58900 51800 5 10 0 0 0 0 1
lcsc=C139127
T 58900 51800 5 10 0 0 0 0 1
xyrotate=180
}
C 60500 50000 1 0 0 capacitor-1.sym
{
T 60700 50700 5 10 0 0 0 0 1
device=CAPACITOR
T 60700 50900 5 10 0 0 0 0 1
symversion=0.1
T 60700 50500 5 10 1 1 0 0 1
refdes=C7
T 60500 50000 5 10 0 0 0 0 1
footprint=0603
T 60500 50000 5 10 1 1 0 0 1
value=100nF
T 60500 50000 5 10 0 0 0 0 1
lcsc=C14663
}
C 61400 51800 1 180 0 led-ws2811.sym
{
T 60805 50500 5 10 0 1 180 0 1
footprint=led2811
T 61000 50900 5 10 1 1 180 0 1
refdes=LED7
T 61400 51800 5 10 0 0 0 0 1
value=led-ws2811
T 61400 51800 5 10 0 0 0 0 1
lcsc=C139127
T 61400 51800 5 10 0 0 0 0 1
xyrotate=180
}
C 63000 50000 1 0 0 capacitor-1.sym
{
T 63200 50700 5 10 0 0 0 0 1
device=CAPACITOR
T 63200 50900 5 10 0 0 0 0 1
symversion=0.1
T 63200 50500 5 10 1 1 0 0 1
refdes=C8
T 63000 50000 5 10 0 0 0 0 1
footprint=0603
T 63000 50000 5 10 1 1 0 0 1
value=100nF
T 63000 50000 5 10 0 0 0 0 1
lcsc=C14663
}
C 63900 51800 1 180 0 led-ws2811.sym
{
T 63305 50500 5 10 0 1 180 0 1
footprint=led2811
T 63500 50900 5 10 1 1 180 0 1
refdes=LED8
T 63900 51800 5 10 0 0 0 0 1
value=led-ws2811
T 63900 51800 5 10 0 0 0 0 1
lcsc=C139127
T 63900 51800 5 10 0 0 0 0 1
xyrotate=180
}
C 65500 50000 1 0 0 capacitor-1.sym
{
T 65700 50700 5 10 0 0 0 0 1
device=CAPACITOR
T 65700 50900 5 10 0 0 0 0 1
symversion=0.1
T 65700 50500 5 10 1 1 0 0 1
refdes=C9
T 65500 50000 5 10 0 0 0 0 1
footprint=0603
T 65500 50000 5 10 1 1 0 0 1
value=100nF
T 65500 50000 5 10 0 0 0 0 1
lcsc=C14663
}
C 66400 51800 1 180 0 led-ws2811.sym
{
T 65805 50500 5 10 0 1 180 0 1
footprint=led2811
T 66000 50900 5 10 1 1 180 0 1
refdes=LED9
T 66400 51800 5 10 0 0 0 0 1
value=led-ws2811
T 66400 51800 5 10 0 0 0 0 1
lcsc=C139127
T 66400 51800 5 10 0 0 0 0 1
xyrotate=180
}
C 68000 50000 1 0 0 capacitor-1.sym
{
T 68200 50700 5 10 0 0 0 0 1
device=CAPACITOR
T 68200 50900 5 10 0 0 0 0 1
symversion=0.1
T 68200 50500 5 10 1 1 0 0 1
refdes=C10
T 68000 50000 5 10 0 0 0 0 1
footprint=0603
T 68000 50000 5 10 1 1 0 0 1
value=100nF
T 68000 50000 5 10 0 0 0 0 1
lcsc=C14663
}
C 68900 51800 1 180 0 led-ws2811.sym
{
T 68305 50500 5 10 0 1 180 0 1
footprint=led2811
T 68500 50900 5 10 1 1 180 0 1
refdes=LED10
T 68900 51800 5 10 0 0 0 0 1
value=led-ws2811
T 68900 51800 5 10 0 0 0 0 1
lcsc=C139127
T 68900 51800 5 10 0 0 0 0 1
xyrotate=180
}
C 67100 49300 1 0 0 capacitor-1.sym
{
T 67300 50000 5 10 0 0 0 0 1
device=CAPACITOR
T 67300 50200 5 10 0 0 0 0 1
symversion=0.1
T 67300 49800 5 10 1 1 0 0 1
refdes=C11
T 67100 49300 5 10 0 0 0 0 1
footprint=0603
T 67100 49300 5 10 1 1 0 0 1
value=100nF
T 67100 49300 5 10 0 0 0 0 1
lcsc=C14663
}
C 67100 48100 1 0 0 led-ws2811.sym
{
T 67695 49400 5 10 0 1 0 0 1
footprint=led2811
T 67500 49000 5 10 1 1 0 0 1
refdes=LED11
T 67100 48100 5 10 0 0 0 0 1
value=led-ws2811
T 67100 48100 5 10 0 0 0 0 1
lcsc=C139127
T 67100 48100 5 10 0 0 0 0 1
xyrotate=180
}
C 64600 49300 1 0 0 capacitor-1.sym
{
T 64800 50000 5 10 0 0 0 0 1
device=CAPACITOR
T 64800 50200 5 10 0 0 0 0 1
symversion=0.1
T 64800 49800 5 10 1 1 0 0 1
refdes=C12
T 64600 49300 5 10 0 0 0 0 1
footprint=0603
T 64600 49300 5 10 1 1 0 0 1
value=100nF
T 64600 49300 5 10 0 0 0 0 1
lcsc=C14663
}
C 64600 48100 1 0 0 led-ws2811.sym
{
T 65195 49400 5 10 0 1 0 0 1
footprint=led2811
T 65000 49000 5 10 1 1 0 0 1
refdes=LED12
T 64600 48100 5 10 0 0 0 0 1
value=led-ws2811
T 64600 48100 5 10 0 0 0 0 1
lcsc=C139127
T 64600 48100 5 10 0 0 0 0 1
xyrotate=180
}
C 62100 49300 1 0 0 capacitor-1.sym
{
T 62300 50000 5 10 0 0 0 0 1
device=CAPACITOR
T 62300 50200 5 10 0 0 0 0 1
symversion=0.1
T 62300 49800 5 10 1 1 0 0 1
refdes=C13
T 62100 49300 5 10 0 0 0 0 1
footprint=0603
T 62100 49300 5 10 1 1 0 0 1
value=100nF
T 62100 49300 5 10 0 0 0 0 1
lcsc=C14663
}
C 62100 48100 1 0 0 led-ws2811.sym
{
T 62695 49400 5 10 0 1 0 0 1
footprint=led2811
T 62500 49000 5 10 1 1 0 0 1
refdes=LED13
T 62100 48100 5 10 0 0 0 0 1
value=led-ws2811
T 62100 48100 5 10 0 0 0 0 1
lcsc=C139127
T 62100 48100 5 10 0 0 0 0 1
xyrotate=180
}
C 59600 49300 1 0 0 capacitor-1.sym
{
T 59800 50000 5 10 0 0 0 0 1
device=CAPACITOR
T 59800 50200 5 10 0 0 0 0 1
symversion=0.1
T 59800 49800 5 10 1 1 0 0 1
refdes=C14
T 59600 49300 5 10 0 0 0 0 1
footprint=0603
T 59600 49300 5 10 1 1 0 0 1
value=100nF
T 59600 49300 5 10 0 0 0 0 1
lcsc=C14663
}
C 59600 48100 1 0 0 led-ws2811.sym
{
T 60195 49400 5 10 0 1 0 0 1
footprint=led2811
T 60000 49000 5 10 1 1 0 0 1
refdes=LED14
T 59600 48100 5 10 0 0 0 0 1
value=led-ws2811
T 59600 48100 5 10 0 0 0 0 1
lcsc=C139127
T 59600 48100 5 10 0 0 0 0 1
xyrotate=180
}
C 57100 49300 1 0 0 capacitor-1.sym
{
T 57300 50000 5 10 0 0 0 0 1
device=CAPACITOR
T 57300 50200 5 10 0 0 0 0 1
symversion=0.1
T 57300 49800 5 10 1 1 0 0 1
refdes=C15
T 57100 49300 5 10 0 0 0 0 1
footprint=0603
T 57100 49300 5 10 1 1 0 0 1
value=100nF
T 57100 49300 5 10 0 0 0 0 1
lcsc=C14663
}
C 57100 48100 1 0 0 led-ws2811.sym
{
T 57695 49400 5 10 0 1 0 0 1
footprint=led2811
T 57500 49000 5 10 1 1 0 0 1
refdes=LED15
T 57100 48100 5 10 0 0 0 0 1
value=led-ws2811
T 57100 48100 5 10 0 0 0 0 1
lcsc=C139127
T 57100 48100 5 10 0 0 0 0 1
xyrotate=180
}
C 54600 49300 1 0 0 capacitor-1.sym
{
T 54800 50000 5 10 0 0 0 0 1
device=CAPACITOR
T 54800 50200 5 10 0 0 0 0 1
symversion=0.1
T 54800 49800 5 10 1 1 0 0 1
refdes=C16
T 54600 49300 5 10 0 0 0 0 1
footprint=0603
T 54600 49300 5 10 1 1 0 0 1
value=100nF
T 54600 49300 5 10 0 0 0 0 1
lcsc=C14663
}
C 54600 48100 1 0 0 led-ws2811.sym
{
T 55195 49400 5 10 0 1 0 0 1
footprint=led2811
T 55000 49000 5 10 1 1 0 0 1
refdes=LED16
T 54600 48100 5 10 0 0 0 0 1
value=led-ws2811
T 54600 48100 5 10 0 0 0 0 1
lcsc=C139127
T 54600 48100 5 10 0 0 0 0 1
xyrotate=180
}
C 52100 49300 1 0 0 capacitor-1.sym
{
T 52300 50000 5 10 0 0 0 0 1
device=CAPACITOR
T 52300 50200 5 10 0 0 0 0 1
symversion=0.1
T 52300 49800 5 10 1 1 0 0 1
refdes=C17
T 52100 49300 5 10 0 0 0 0 1
footprint=0603
T 52100 49300 5 10 1 1 0 0 1
value=100nF
T 52100 49300 5 10 0 0 0 0 1
lcsc=C14663
}
C 52100 48100 1 0 0 led-ws2811.sym
{
T 52695 49400 5 10 0 1 0 0 1
footprint=led2811
T 52500 49000 5 10 1 1 0 0 1
refdes=LED17
T 52100 48100 5 10 0 0 0 0 1
value=led-ws2811
T 52100 48100 5 10 0 0 0 0 1
lcsc=C139127
T 52100 48100 5 10 0 0 0 0 1
xyrotate=180
}
C 49000 49300 1 0 0 capacitor-1.sym
{
T 49200 50000 5 10 0 0 0 0 1
device=CAPACITOR
T 49200 50200 5 10 0 0 0 0 1
symversion=0.1
T 49600 49600 5 10 1 1 0 0 1
refdes=C18
T 49000 49300 5 10 0 0 0 0 1
footprint=0603
T 49000 49300 5 10 1 1 0 0 1
value=100nF
T 49000 49300 5 10 0 0 0 0 1
lcsc=C14663
}
C 49000 48100 1 0 0 led-ws2811.sym
{
T 49595 49400 5 10 0 1 0 0 1
footprint=led2811
T 49400 49000 5 10 1 1 0 0 1
refdes=LED18
T 49000 48100 5 10 0 0 0 0 1
value=led-ws2811
T 49000 48100 5 10 0 0 0 0 1
lcsc=C139127
T 49000 48100 5 10 0 0 0 0 1
xyrotate=180
}
C 46500 49300 1 0 0 capacitor-1.sym
{
T 46700 50000 5 10 0 0 0 0 1
device=CAPACITOR
T 46700 50200 5 10 0 0 0 0 1
symversion=0.1
T 47100 49600 5 10 1 1 0 0 1
refdes=C19
T 46500 49300 5 10 0 0 0 0 1
footprint=0603
T 46500 49300 5 10 1 1 0 0 1
value=100nF
T 46500 49300 5 10 0 0 0 0 1
lcsc=C14663
}
C 46500 48100 1 0 0 led-ws2811.sym
{
T 47095 49400 5 10 0 1 0 0 1
footprint=led2811
T 46900 49000 5 10 1 1 0 0 1
refdes=LED19
T 46500 48100 5 10 0 0 0 0 1
value=led-ws2811
T 46500 48100 5 10 0 0 0 0 1
lcsc=C139127
T 46500 48100 5 10 0 0 0 0 1
xyrotate=180
}
C 44000 49300 1 0 0 capacitor-1.sym
{
T 44200 50000 5 10 0 0 0 0 1
device=CAPACITOR
T 44200 50200 5 10 0 0 0 0 1
symversion=0.1
T 44600 49600 5 10 1 1 0 0 1
refdes=C20
T 44000 49300 5 10 0 0 0 0 1
footprint=0603
T 44000 49300 5 10 1 1 0 0 1
value=100nF
T 44000 49300 5 10 0 0 0 0 1
lcsc=C14663
}
C 44000 48100 1 0 0 led-ws2811.sym
{
T 44595 49400 5 10 0 1 0 0 1
footprint=led2811
T 44400 49000 5 10 1 1 0 0 1
refdes=LED20
T 44000 48100 5 10 0 0 0 0 1
value=led-ws2811
T 44000 48100 5 10 0 0 0 0 1
lcsc=C139127
T 44000 48100 5 10 0 0 0 0 1
xyrotate=180
}
C 41500 49300 1 0 0 capacitor-1.sym
{
T 41700 50000 5 10 0 0 0 0 1
device=CAPACITOR
T 41700 50200 5 10 0 0 0 0 1
symversion=0.1
T 42100 49600 5 10 1 1 0 0 1
refdes=C21
T 41500 49300 5 10 0 0 0 0 1
footprint=0603
T 41500 49300 5 10 1 1 0 0 1
value=100nF
T 41500 49300 5 10 0 0 0 0 1
lcsc=C14663
}
C 41500 48100 1 0 0 led-ws2811.sym
{
T 42095 49400 5 10 0 1 0 0 1
footprint=led2811
T 41900 49000 5 10 1 1 0 0 1
refdes=LED21
T 41500 48100 5 10 0 0 0 0 1
value=led-ws2811
T 41500 48100 5 10 0 0 0 0 1
lcsc=C139127
T 41500 48100 5 10 0 0 0 0 1
xyrotate=180
}
C 38200 49300 1 0 0 capacitor-1.sym
{
T 38400 50000 5 10 0 0 0 0 1
device=CAPACITOR
T 38400 50200 5 10 0 0 0 0 1
symversion=0.1
T 38400 49800 5 10 1 1 0 0 1
refdes=C22
T 38200 49300 5 10 0 0 0 0 1
footprint=0603
T 38200 49300 5 10 1 1 0 0 1
value=100nF
T 38200 49300 5 10 0 0 0 0 1
lcsc=C14663
}
C 38200 48100 1 0 0 led-ws2811.sym
{
T 38795 49400 5 10 0 1 0 0 1
footprint=led2811
T 38600 49000 5 10 1 1 0 0 1
refdes=LED22
T 38200 48100 5 10 0 0 0 0 1
value=led-ws2811
T 38200 48100 5 10 0 0 0 0 1
lcsc=C139127
T 38200 48100 5 10 0 0 0 0 1
xyrotate=180
}
C 35700 49300 1 0 0 capacitor-1.sym
{
T 35900 50000 5 10 0 0 0 0 1
device=CAPACITOR
T 35900 50200 5 10 0 0 0 0 1
symversion=0.1
T 35900 49800 5 10 1 1 0 0 1
refdes=C23
T 35700 49300 5 10 0 0 0 0 1
footprint=0603
T 35700 49300 5 10 1 1 0 0 1
value=100nF
T 35700 49300 5 10 0 0 0 0 1
lcsc=C14663
}
C 35700 48100 1 0 0 led-ws2811.sym
{
T 36295 49400 5 10 0 1 0 0 1
footprint=led2811
T 36100 49000 5 10 1 1 0 0 1
refdes=LED23
T 35700 48100 5 10 0 0 0 0 1
value=led-ws2811
T 35700 48100 5 10 0 0 0 0 1
lcsc=C139127
T 35700 48100 5 10 0 0 0 0 1
xyrotate=180
}
C 33100 49300 1 0 0 capacitor-1.sym
{
T 33300 50000 5 10 0 0 0 0 1
device=CAPACITOR
T 33300 50200 5 10 0 0 0 0 1
symversion=0.1
T 33300 49800 5 10 1 1 0 0 1
refdes=C24
T 33100 49300 5 10 0 0 0 0 1
footprint=0603
T 33100 49300 5 10 1 1 0 0 1
value=100nF
T 33100 49300 5 10 0 0 0 0 1
lcsc=C14663
}
C 33100 48100 1 0 0 led-ws2811.sym
{
T 33695 49400 5 10 0 1 0 0 1
footprint=led2811
T 33500 49000 5 10 1 1 0 0 1
refdes=LED24
T 33100 48100 5 10 0 0 0 0 1
value=led-ws2811
T 33100 48100 5 10 0 0 0 0 1
lcsc=C139127
T 33100 48100 5 10 0 0 0 0 1
xyrotate=180
}
C 30700 49300 1 0 0 capacitor-1.sym
{
T 30900 50000 5 10 0 0 0 0 1
device=CAPACITOR
T 30900 50200 5 10 0 0 0 0 1
symversion=0.1
T 30900 49800 5 10 1 1 0 0 1
refdes=C25
T 30700 49300 5 10 0 0 0 0 1
footprint=0603
T 30700 49300 5 10 1 1 0 0 1
value=100nF
T 30700 49300 5 10 0 0 0 0 1
lcsc=C14663
}
C 30700 48100 1 0 0 led-ws2811.sym
{
T 31295 49400 5 10 0 1 0 0 1
footprint=led2811
T 31100 49000 5 10 1 1 0 0 1
refdes=LED25
T 30700 48100 5 10 0 0 0 0 1
value=led-ws2811
T 30700 48100 5 10 0 0 0 0 1
lcsc=C139127
T 30700 48100 5 10 0 0 0 0 1
xyrotate=180
}
C 28200 49300 1 0 0 capacitor-1.sym
{
T 28400 50000 5 10 0 0 0 0 1
device=CAPACITOR
T 28400 50200 5 10 0 0 0 0 1
symversion=0.1
T 28400 49800 5 10 1 1 0 0 1
refdes=C26
T 28200 49300 5 10 0 0 0 0 1
footprint=0603
T 28200 49300 5 10 1 1 0 0 1
value=100nF
T 28200 49300 5 10 0 0 0 0 1
lcsc=C14663
}
C 28200 48100 1 0 0 led-ws2811.sym
{
T 28795 49400 5 10 0 1 0 0 1
footprint=led2811
T 28600 49000 5 10 1 1 0 0 1
refdes=LED26
T 28200 48100 5 10 0 0 0 0 1
value=led-ws2811
T 28200 48100 5 10 0 0 0 0 1
lcsc=C139127
T 28200 48100 5 10 0 0 0 0 1
xyrotate=180
}
C 25700 49300 1 0 0 capacitor-1.sym
{
T 25900 50000 5 10 0 0 0 0 1
device=CAPACITOR
T 25900 50200 5 10 0 0 0 0 1
symversion=0.1
T 25900 49800 5 10 1 1 0 0 1
refdes=C27
T 25700 49300 5 10 0 0 0 0 1
footprint=0603
T 25700 49300 5 10 1 1 0 0 1
value=100nF
T 25700 49300 5 10 0 0 0 0 1
lcsc=C14663
}
C 25700 48100 1 0 0 led-ws2811.sym
{
T 26295 49400 5 10 0 1 0 0 1
footprint=led2811
T 26100 49000 5 10 1 1 0 0 1
refdes=LED27
T 25700 48100 5 10 0 0 0 0 1
value=led-ws2811
T 25700 48100 5 10 0 0 0 0 1
lcsc=C139127
T 25700 48100 5 10 0 0 0 0 1
xyrotate=180
}
C 23200 49300 1 0 0 capacitor-1.sym
{
T 23400 50000 5 10 0 0 0 0 1
device=CAPACITOR
T 23400 50200 5 10 0 0 0 0 1
symversion=0.1
T 23400 49800 5 10 1 1 0 0 1
refdes=C28
T 23200 49300 5 10 0 0 0 0 1
footprint=0603
T 23200 49300 5 10 1 1 0 0 1
value=100nF
T 23200 49300 5 10 0 0 0 0 1
lcsc=C14663
}
C 23200 48100 1 0 0 led-ws2811.sym
{
T 23795 49400 5 10 0 1 0 0 1
footprint=led2811
T 23600 49000 5 10 1 1 0 0 1
refdes=LED28
T 23200 48100 5 10 0 0 0 0 1
value=led-ws2811
T 23200 48100 5 10 0 0 0 0 1
lcsc=C139127
T 23200 48100 5 10 0 0 0 0 1
xyrotate=180
}
C 24100 50100 1 0 0 capacitor-1.sym
{
T 24300 50800 5 10 0 0 0 0 1
device=CAPACITOR
T 24300 51000 5 10 0 0 0 0 1
symversion=0.1
T 24300 50600 5 10 1 1 0 0 1
refdes=C29
T 24100 50100 5 10 0 0 0 0 1
footprint=0603
T 24100 50100 5 10 1 1 0 0 1
value=100nF
T 24100 50100 5 10 0 0 0 0 1
lcsc=C14663
}
C 25000 51800 1 180 0 led-ws2811.sym
{
T 24405 50500 5 10 0 1 180 0 1
footprint=led2811
T 24600 50900 5 10 1 1 180 0 1
refdes=LED29
T 25000 51800 5 10 0 0 0 0 1
value=led-ws2811
T 25000 51800 5 10 0 0 0 0 1
lcsc=C139127
T 25000 51800 5 10 0 0 0 0 1
xyrotate=180
}
C 26600 50100 1 0 0 capacitor-1.sym
{
T 26800 50800 5 10 0 0 0 0 1
device=CAPACITOR
T 26800 51000 5 10 0 0 0 0 1
symversion=0.1
T 26800 50600 5 10 1 1 0 0 1
refdes=C30
T 26600 50100 5 10 0 0 0 0 1
footprint=0603
T 26600 50100 5 10 1 1 0 0 1
value=100nF
T 26600 50100 5 10 0 0 0 0 1
lcsc=C14663
}
C 32500 51800 1 180 0 led-ws2811.sym
{
T 31905 50500 5 10 0 1 180 0 1
footprint=led2811
T 32100 50900 5 10 1 1 180 0 1
refdes=LED32
T 32500 51800 5 10 0 0 0 0 1
value=led-ws2811
T 32500 51800 5 10 0 0 0 0 1
lcsc=C139127
T 32500 51800 5 10 0 0 0 0 1
xyrotate=180
}
C 29100 50100 1 0 0 capacitor-1.sym
{
T 29300 50800 5 10 0 0 0 0 1
device=CAPACITOR
T 29300 51000 5 10 0 0 0 0 1
symversion=0.1
T 29300 50600 5 10 1 1 0 0 1
refdes=C31
T 29100 50100 5 10 0 0 0 0 1
footprint=0603
T 29100 50100 5 10 1 1 0 0 1
value=100nF
T 29100 50100 5 10 0 0 0 0 1
lcsc=C14663
}
C 27600 51800 1 180 0 led-ws2811.sym
{
T 27005 50500 5 10 0 1 180 0 1
footprint=led2811
T 27000 50900 5 10 1 1 180 0 1
refdes=LED30
T 27600 51800 5 10 0 0 0 0 1
value=led-ws2811
T 27600 51800 5 10 0 0 0 0 1
lcsc=C139127
T 27600 51800 5 10 0 0 0 0 1
xyrotate=180
}
C 31600 50100 1 0 0 capacitor-1.sym
{
T 31800 50800 5 10 0 0 0 0 1
device=CAPACITOR
T 31800 51000 5 10 0 0 0 0 1
symversion=0.1
T 31800 50600 5 10 1 1 0 0 1
refdes=C32
T 31600 50100 5 10 0 0 0 0 1
footprint=0603
T 31600 50100 5 10 1 1 0 0 1
value=100nF
T 31600 50100 5 10 0 0 0 0 1
lcsc=C14663
}
C 30000 51800 1 180 0 led-ws2811.sym
{
T 29405 50500 5 10 0 1 180 0 1
footprint=led2811
T 29600 50900 5 10 1 1 180 0 1
refdes=LED31
T 30000 51800 5 10 0 0 0 0 1
value=led-ws2811
T 30000 51800 5 10 0 0 0 0 1
lcsc=C139127
T 30000 51800 5 10 0 0 0 0 1
xyrotate=180
}
C 34000 50100 1 0 0 capacitor-1.sym
{
T 34200 50800 5 10 0 0 0 0 1
device=CAPACITOR
T 34200 51000 5 10 0 0 0 0 1
symversion=0.1
T 34200 50600 5 10 1 1 0 0 1
refdes=C33
T 34000 50100 5 10 0 0 0 0 1
footprint=0603
T 34000 50100 5 10 1 1 0 0 1
value=100nF
T 34000 50100 5 10 0 0 0 0 1
lcsc=C14663
}
C 34900 51800 1 180 0 led-ws2811.sym
{
T 34305 50500 5 10 0 1 180 0 1
footprint=led2811
T 34500 50900 5 10 1 1 180 0 1
refdes=LED33
T 34900 51800 5 10 0 0 0 0 1
value=led-ws2811
T 34900 51800 5 10 0 0 0 0 1
lcsc=C139127
T 34900 51800 5 10 0 0 0 0 1
xyrotate=180
}
C 36600 50100 1 0 0 capacitor-1.sym
{
T 36800 50800 5 10 0 0 0 0 1
device=CAPACITOR
T 36800 51000 5 10 0 0 0 0 1
symversion=0.1
T 36800 50600 5 10 1 1 0 0 1
refdes=C34
T 36600 50100 5 10 0 0 0 0 1
footprint=0603
T 36600 50100 5 10 1 1 0 0 1
value=100nF
T 36600 50100 5 10 0 0 0 0 1
lcsc=C14663
}
C 37500 51800 1 180 0 led-ws2811.sym
{
T 36905 50500 5 10 0 1 180 0 1
footprint=led2811
T 37100 50900 5 10 1 1 180 0 1
refdes=LED34
T 37500 51800 5 10 0 0 0 0 1
value=led-ws2811
T 37500 51800 5 10 0 0 0 0 1
lcsc=C139127
T 37500 51800 5 10 0 0 0 0 1
xyrotate=180
}
C 39100 50100 1 0 0 capacitor-1.sym
{
T 39300 50800 5 10 0 0 0 0 1
device=CAPACITOR
T 39300 51000 5 10 0 0 0 0 1
symversion=0.1
T 39300 50600 5 10 1 1 0 0 1
refdes=C35
T 39100 50100 5 10 0 0 0 0 1
footprint=0603
T 39100 50100 5 10 1 1 0 0 1
value=100nF
T 39100 50100 5 10 0 0 0 0 1
lcsc=C14663
}
C 40000 51800 1 180 0 led-ws2811.sym
{
T 39405 50500 5 10 0 1 180 0 1
footprint=led2811
T 39600 50900 5 10 1 1 180 0 1
refdes=LED35
T 40000 51800 5 10 0 0 0 0 1
value=led-ws2811
T 40000 51800 5 10 0 0 0 0 1
lcsc=C139127
T 40000 51800 5 10 0 0 0 0 1
xyrotate=180
}
N 40100 48600 41000 48600 4
N 38200 48200 38100 48200 4
N 38100 48200 38100 48600 4
N 38100 48600 37600 48600 4
N 25700 48200 25400 48200 4
N 25400 48200 25400 48600 4
N 25400 48600 25100 48600 4
N 28200 48200 28000 48200 4
N 28000 48200 28000 48600 4
N 28000 48600 27600 48600 4
N 30700 48200 30500 48200 4
N 30500 48200 30500 48600 4
N 30500 48600 30100 48600 4
N 33100 48200 32900 48200 4
N 32900 48200 32900 48600 4
N 32900 48600 32600 48600 4
N 35700 48200 35500 48200 4
N 35500 48200 35500 48600 4
N 35500 48600 35000 48600 4
N 23200 48200 22900 48200 4
N 22900 48200 22900 51300 4
N 22900 51300 23100 51300 4
N 25000 51700 25400 51700 4
N 25400 51700 25400 51300 4
N 25400 51300 25700 51300 4
N 27600 51700 27900 51700 4
N 27900 51700 27900 51300 4
N 27900 51300 28100 51300 4
N 30000 51700 30200 51700 4
N 30200 51700 30200 51300 4
N 30200 51300 30600 51300 4
N 32500 51700 32800 51700 4
N 32800 51700 32800 51300 4
N 32800 51300 33000 51300 4
N 34900 51700 35100 51700 4
N 35100 51700 35100 51300 4
N 35100 51300 35600 51300 4
N 38100 51300 37700 51300 4
N 37700 51300 37700 51700 4
N 37700 51700 37500 51700 4
N 41500 48200 41000 48200 4
N 41000 48200 41000 48600 4
N 43300 51700 43500 51700 4
N 43500 51700 43500 51300 4
N 43500 51300 44000 51300 4
N 40800 51300 40800 55200 4
N 40800 51300 41400 51300 4
N 45900 51700 46200 51700 4
N 46200 51700 46200 51300 4
N 46200 51300 49000 51300 4
N 50900 51700 51100 51700 4
N 49000 48200 48800 48200 4
N 48800 48200 48800 48600 4
N 48800 48600 48400 48600 4
N 46500 48200 46300 48200 4
N 46300 48200 46300 48600 4
N 46300 48600 45900 48600 4
N 44000 48200 43800 48200 4
N 43800 48200 43800 48600 4
N 43800 48600 43400 48600 4
N 33700 62200 38300 62200 4
N 34100 64700 34100 62900 4
N 34100 62900 39200 62900 4
N 39200 62900 39200 61100 4
N 39200 60700 39400 60700 4
N 39400 60700 39400 63200 4
N 39400 63200 34500 63200 4
N 34500 63200 34500 64700 4
N 39200 60300 39800 60300 4
N 39800 60300 39800 63400 4
N 39800 63400 34900 63400 4
N 34900 63400 34900 64700 4
N 39200 57500 39400 57500 4
N 50900 48600 51500 48600 4
N 52100 48200 51500 48200 4
N 51500 48200 51500 48600 4
N 51100 51300 52000 51300 4
N 53900 51700 54300 51700 4
N 54300 51700 54300 51300 4
N 54300 51300 54500 51300 4
N 66400 51700 66600 51700 4
N 66600 51700 66600 51300 4
N 66600 51300 67000 51300 4
N 63900 51700 64100 51700 4
N 64100 51700 64100 51300 4
N 64100 51300 64500 51300 4
N 61400 51700 61600 51700 4
N 61600 51700 61600 51300 4
N 61600 51300 62000 51300 4
N 58900 51700 59100 51700 4
N 59100 51700 59100 51300 4
N 59100 51300 59500 51300 4
N 56400 51700 56700 51700 4
N 56700 51700 56700 51300 4
N 56700 51300 57000 51300 4
N 54600 48200 54400 48200 4
N 54400 48200 54400 48600 4
N 54400 48600 54000 48600 4
N 68900 51700 69700 51700 4
N 69700 48600 69700 51700 4
N 69700 48600 69000 48600 4
N 66500 48600 66900 48600 4
N 66900 48600 66900 48200 4
N 66900 48200 67100 48200 4
N 64000 48600 64400 48600 4
N 64400 48600 64400 48200 4
N 64400 48200 64600 48200 4
N 61500 48600 61900 48600 4
N 61900 48600 61900 48200 4
N 61900 48200 62100 48200 4
N 56500 48600 56900 48600 4
N 56900 48600 56900 48200 4
N 56900 48200 57100 48200 4
N 59000 48600 59400 48600 4
N 59400 48600 59400 48200 4
N 59400 48200 59600 48200 4
N 39200 61100 47500 61100 4
N 40800 57900 39200 57900 4
N 39400 58300 39200 58300 4
C 41700 61400 1 0 1 micro-usb.sym
{
T 41300 64000 5 10 1 1 180 0 1
refdes=USB1
T 41400 63850 5 10 0 0 0 6 1
device=MICRO_USB_B
T 41400 64050 5 10 0 0 0 6 1
footprint=jclc_C404968_usb
T 41700 61400 5 10 0 0 0 0 1
value=usb_charge_port
T 41700 61400 5 10 0 0 0 0 1
lcsc=C404968
T 41700 61400 5 10 0 0 0 0 1
xyrotate=270
}
C 44100 63700 1 90 0 tp4056e.sym
{
T 42000 65400 5 10 1 1 90 6 1
refdes=U2
T 41650 64000 5 10 0 0 90 0 1
device=TP4056
T 41450 64000 5 10 0 0 90 0 1
footprint=SO8
T 44100 63700 5 10 0 0 0 0 1
value=TP4056
T 44100 63700 5 10 0 0 0 0 1
lcsc=C16581
T 44100 63700 5 10 0 0 0 0 1
xyrotate=270
}
C 43000 66800 1 90 1 resistor-2.sym
{
T 42650 66400 5 10 0 0 90 6 1
device=RESISTOR
T 43000 66800 5 10 0 0 90 0 1
footprint=0603
T 42800 65800 5 10 1 1 90 0 1
value=1k
T 42500 66500 5 10 1 1 0 0 1
refdes=R1
T 43000 66800 5 10 0 0 0 0 1
lcsc=C21190
}
C 43400 66800 1 90 1 resistor-2.sym
{
T 43050 66400 5 10 0 0 90 6 1
device=RESISTOR
T 43600 66300 5 10 1 1 90 6 1
refdes=R2
T 43400 66800 5 10 0 0 90 0 1
footprint=0603
T 43500 65800 5 10 1 1 90 0 1
value=1k
T 43400 66800 5 10 0 0 0 0 1
lcsc=C21190
}
C 43000 61700 1 90 0 resistor-2.sym
{
T 42650 62100 5 10 0 0 90 0 1
device=RESISTOR
T 42700 61900 5 10 1 1 90 0 1
refdes=R3
T 43200 61800 5 10 1 1 90 0 1
value=10k
T 43000 61700 5 10 0 0 90 0 1
footprint=0603
T 43000 61700 5 10 0 0 0 0 1
lcsc=C25804
}
C 43100 68100 1 90 1 led-1.sym
{
T 42500 67300 5 10 0 0 90 6 1
device=LED
T 42700 67300 5 10 1 1 90 6 1
refdes=LED36
T 42300 67300 5 10 0 0 90 6 1
symversion=0.1
T 43100 68100 5 10 0 0 90 0 1
footprint=0805
T 43100 68100 5 12 0 1 0 0 1
description=Red/charging
T 42200 67800 5 12 1 1 0 0 1
value=Red
T 43100 68100 5 10 0 0 0 0 1
lcsc=C84256
T 43100 68100 5 10 0 0 0 0 1
xyrotate=180
}
C 43500 68100 1 90 1 led-1.sym
{
T 42900 67300 5 10 0 0 90 6 1
device=LED
T 43600 67300 5 10 1 1 90 6 1
refdes=LED37
T 42700 67300 5 10 0 0 90 6 1
symversion=0.1
T 43500 68100 5 10 0 0 90 0 1
footprint=0805
T 43500 68100 5 12 0 1 0 0 1
description=Blue/charged
T 43600 67900 5 12 1 1 0 0 1
value=Blue
T 43500 68100 5 10 0 0 0 0 1
lcsc=C2293
T 43500 68100 5 10 0 0 0 0 1
xyrotate=180
}
N 42900 66800 42900 67200 4
N 43300 66800 43300 67200 4
C 48600 64900 1 180 1 connector2-2.sym
{
T 49300 63600 5 10 1 1 180 0 1
refdes=CONN2
T 48900 63650 5 10 0 0 180 6 1
device=CONNECTOR_2
T 48900 63450 5 10 0 0 180 6 1
footprint=jst1_25-2pin
T 48600 64900 5 10 0 0 0 0 1
value=battery
T 48600 64900 5 10 0 0 0 0 1
lcsc=NOLCSC
}
C 47600 65800 1 90 0 DW01.sym
{
T 46100 66295 5 10 1 1 90 0 1
refdes=U3
T 45500 65795 5 10 0 0 90 0 1
footprint=sot-23-6
T 47600 65800 5 10 0 0 0 0 1
value=DW01
T 47600 65800 5 10 0 0 0 0 1
lcsc=C14213
T 47600 65800 5 10 0 0 0 0 1
xyrotate=180
}
C 46600 63500 1 270 0 FS8205A.sym
{
T 48500 62605 5 10 1 1 90 8 1
refdes=U4
T 45800 66805 5 10 0 0 90 8 1
footprint=TSSOP8W
T 46600 63500 5 10 0 0 0 0 1
value=FS8205A
T 46600 63500 5 10 0 0 0 0 1
lcsc=C16052
T 46600 63500 5 10 0 0 0 0 1
xyrotate=270
}
N 43300 65900 43300 65700 4
N 42900 65700 42900 65900 4
C 43500 62800 1 270 0 capacitor-1.sym
{
T 44200 62600 5 10 0 0 270 0 1
device=CAPACITOR
T 44400 62600 5 10 0 0 270 0 1
symversion=0.1
T 43800 62800 5 10 1 1 270 0 1
refdes=C43
T 43500 62800 5 10 0 0 270 0 1
footprint=0805
T 43500 62300 5 10 1 1 270 0 1
value=10uF
T 43500 62800 5 10 0 0 0 0 1
lcsc=C15850
}
C 47000 65800 1 270 0 resistor-2.sym
{
T 47350 65400 5 10 0 0 270 0 1
device=RESISTOR
T 47300 65300 5 10 1 1 270 0 1
refdes=R6
T 47000 65800 5 10 0 1 270 0 1
footprint=0603
T 46800 65700 5 10 1 1 270 0 1
value=1k
T 47000 65800 5 10 0 0 0 0 1
lcsc=C21190
}
C 47000 68800 1 270 0 resistor-2.sym
{
T 47350 68400 5 10 0 0 270 0 1
device=RESISTOR
T 47300 68600 5 10 1 1 270 0 1
refdes=R5
T 47000 68800 5 10 0 0 270 0 1
footprint=0603
T 47300 68300 5 10 1 1 270 0 1
value=100
T 47000 68800 5 10 0 0 0 0 1
lcsc=C22775
}
C 46900 68800 1 90 1 capacitor-1.sym
{
T 46200 68600 5 10 0 0 270 2 1
device=CAPACITOR
T 46000 68600 5 10 0 0 270 2 1
symversion=0.1
T 46600 68800 5 10 1 1 270 2 1
refdes=C42
T 46900 68800 5 10 0 0 270 2 1
footprint=0805
T 46900 68300 5 10 1 1 270 2 1
value=10uF
T 46900 68800 5 10 0 0 0 0 1
lcsc=C15850
}
C 44600 64700 1 270 0 capacitor-1.sym
{
T 45300 64500 5 10 0 0 270 0 1
device=CAPACITOR
T 45500 64500 5 10 0 0 270 0 1
symversion=0.1
T 44500 64700 5 10 1 1 270 0 1
refdes=C41
T 44600 64700 5 10 0 0 270 0 1
footprint=0603
T 44600 64200 5 10 1 1 270 0 1
value=100nF
T 44600 64700 5 10 0 0 0 0 1
lcsc=C14663
}
N 41700 63400 41700 68100 4
N 41700 61800 41700 61100 4
N 37300 68800 48600 68800 4
N 48600 64500 48600 68800 4
N 45400 64100 48600 64100 4
N 43300 68100 41700 68100 4
N 42500 65700 41700 65700 4
N 43700 62800 43700 63700 4
N 43700 63400 41700 63400 4
N 42500 61100 42500 63700 4
N 42900 63700 42900 62600 4
N 43300 61100 43300 63700 4
N 43700 65700 44800 65700 4
N 44800 64700 44800 68800 4
N 44800 63800 44800 61100 4
N 45800 61100 45800 64900 4
N 47100 61500 47500 61500 4
N 47500 61500 47500 61100 4
N 47100 67800 47100 67900 4
N 45400 64100 45400 67800 4
N 45400 67800 46700 67800 4
N 47100 63500 47500 63500 4
N 47500 63500 47500 64100 4
N 46700 63500 46700 65800 4
N 47500 65800 47500 64500 4
N 47500 64500 46200 64500 4
N 46200 64500 46200 61500 4
N 46200 61500 46700 61500 4
N 37300 68800 37300 62200 4
N 42900 61700 42900 61100 4
N 43700 61900 43700 61100 4
N 46700 67900 46700 67800 4
N 47100 64900 45800 64900 4
C 40200 57700 1 270 0 vss-1.sym
C 40200 58100 1 270 1 vss-1.sym
N 51100 51300 51100 51700 4
N 32600 57500 33700 57500 4
C 41900 61100 1 180 0 vss-1.sym
T 40400 58800 9 30 1 0 0 0 3
https://gitlab.com/ldam/dominion-randomizer-inlay
License GPL v3, see url for details
V-02-06-2021
N 53900 50200 53900 51300 4
N 68900 50200 68900 51300 4
N 66400 51300 66400 50200 4
N 63900 51300 63900 50200 4
N 61400 51300 61400 50200 4
N 58900 51300 58900 50200 4
N 56400 50200 56400 51300 4
N 58900 50700 61400 50700 4
N 63900 50700 66400 50700 4
N 58900 50700 56400 50700 4
N 56400 50700 53900 50700 4
N 61400 50700 63900 50700 4
N 66400 50700 68900 50700 4
N 67100 48600 67100 49500 4
N 64600 48600 64600 49500 4
N 62100 48600 62100 49500 4
N 59600 48600 59600 49500 4
N 57100 48600 57100 49500 4
N 54600 48600 54600 49500 4
N 52100 48600 52100 49500 4
N 52100 49200 54600 49200 4
N 54600 49200 57100 49200 4
N 57100 49200 59600 49200 4
N 59600 49200 62100 49200 4
N 62100 49200 64600 49200 4
N 64600 49200 67100 49200 4
N 43300 50700 43300 51300 4
N 45900 50700 45900 51300 4
N 50900 49200 50900 50700 4
N 49000 48600 49000 49200 4
N 46500 48600 46500 49200 4
N 44000 48600 44000 49200 4
N 41500 48600 41500 49500 4
N 41500 49200 52100 49200 4
N 40000 51300 40000 50300 4
N 38200 48600 38200 49500 4
N 37500 51300 37500 50300 4
N 35700 48600 35700 49500 4
N 33100 48600 33100 49500 4
N 34900 50300 34900 51300 4
N 32500 51300 32500 50300 4
N 30700 49500 30700 48600 4
N 30000 50300 30000 51300 4
N 28200 49500 28200 48600 4
N 27600 51300 27600 50300 4
N 27600 50300 27500 50300 4
N 25700 49500 25700 48600 4
N 25000 51300 25000 50300 4
N 23200 49500 23200 48600 4
N 23200 49200 25700 49200 4
N 25700 49200 28200 49200 4
N 28200 49200 30700 49200 4
N 30700 49200 33100 49200 4
N 33100 49200 35700 49200 4
N 25000 50600 27600 50600 4
N 27600 50600 30000 50600 4
N 30000 50600 32500 50600 4
N 32500 50600 34900 50600 4
N 34900 50600 37500 50600 4
N 37500 50600 40000 50600 4
N 35700 49200 38200 49200 4
C 25200 49200 1 0 1 vdd-1.sym
N 30300 49200 30300 50600 4
N 46500 49200 46500 49500 4
N 40000 50700 53900 50700 4
C 37300 65600 1 270 0 vdd-1.sym
C 33700 57200 1 0 0 PIC18F14K22.sym
{
T 34200 61700 5 10 1 1 0 0 1
refdes=U1
T 39100 58700 5 10 0 0 0 0 1
device=PIC18F14K22
T 39100 58400 5 10 0 0 0 0 1
footprint=SSOP20_OK
T 33700 57200 5 10 0 0 0 0 1
lcsc=C50638
T 33700 57200 5 10 0 0 0 0 1
value=pic18f14k22
}
C 38300 62000 1 0 0 capacitor-1.sym
{
T 38500 62700 5 10 0 0 0 0 1
device=CAPACITOR
T 38500 62900 5 10 0 0 0 0 1
symversion=0.1
T 38500 62500 5 10 1 1 0 0 1
refdes=C40
T 38300 62000 5 10 0 0 0 0 1
footprint=0603
T 38300 62000 5 10 1 1 0 0 1
value=100nF
T 38300 62000 5 10 0 0 0 0 1
lcsc=C14663
}
C 40900 55200 1 90 0 resistor-2.sym
{
T 40550 55600 5 10 0 0 90 0 1
device=RESISTOR
T 40600 55400 5 10 1 1 90 0 1
refdes=R7
T 41100 55300 5 10 1 1 90 0 1
value=33ohm
T 40900 55200 5 10 0 0 90 0 1
footprint=0603
T 40900 55200 5 10 0 0 0 0 1
lcsc=C23140
}
N 40800 56100 40800 57900 4
C 32600 64700 1 90 0 icsp_conn.sym
{
T 30000 65300 5 10 1 1 90 0 1
refdes=CONN3
T 31600 66900 5 10 0 0 90 0 1
device=ICSP CONN
T 31900 66900 5 10 0 0 90 0 1
footprint=icsp-pogo
T 32600 64700 5 10 0 0 0 0 1
value=icsp_programming
T 32600 64700 5 10 0 0 0 0 1
lcsc=NOLCSC
}
N 30300 64700 30300 62500 4
N 30300 62500 33300 62500 4
N 30700 64700 30700 62800 4
N 30700 62800 33700 62800 4
N 31100 64700 31100 63200 4
N 31100 63200 34100 63200 4
N 31500 64700 31500 63600 4
N 31500 63600 34500 63600 4
N 31900 64700 31900 64000 4
N 31900 64000 34900 64000 4
C 32100 55000 1 270 0 mosfet-with-diode-1.sym
{
T 32600 54100 5 10 0 0 270 0 1
device=NPN_TRANSISTOR
T 32600 53900 5 10 1 1 0 0 1
refdes=Q1
T 31900 53900 5 10 1 1 0 0 1
value=2N7002
T 32100 55000 5 10 0 0 0 0 1
lcsc=C8545
T 32100 55000 5 10 0 0 0 0 1
footprint=SOT23D
T 32100 55000 5 10 1 1 0 0 1
xyrotate=90
}
N 25100 47800 70800 47800 4
N 23100 52100 70800 52100 4
N 23100 51700 23100 52100 4
N 25700 51700 25700 52100 4
N 28100 51700 28100 52100 4
N 30600 51700 30600 52100 4
N 25100 47800 25100 48200 4
N 27600 47800 27600 48200 4
N 30100 47800 30100 48200 4
N 32600 47800 32600 48200 4
N 35000 47800 35000 48200 4
N 37600 47800 37600 48200 4
N 40100 47800 40100 48200 4
N 33000 51700 33000 52100 4
N 35600 51700 35600 52100 4
N 38100 51700 38100 52100 4
N 41400 51700 41400 52100 4
N 43400 47800 43400 48200 4
N 44000 51700 44000 52100 4
N 45900 47800 45900 48200 4
N 48400 47800 48400 48200 4
N 50900 47800 50900 48200 4
N 49000 51700 49000 52100 4
N 52000 51700 52000 52100 4
N 54500 51700 54500 52100 4
N 57000 51700 57000 52100 4
N 54000 47800 54000 48200 4
N 56500 47800 56500 48200 4
N 59000 47800 59000 48200 4
N 61500 47800 61500 48200 4
N 64000 47800 64000 48200 4
N 66500 47800 66500 48200 4
N 69000 47800 69000 48200 4
N 59500 51700 59500 52100 4
N 62000 51700 62000 52100 4
N 64500 51700 64500 52100 4
N 67000 51700 67000 52100 4
N 70800 47800 70800 52100 4
N 32600 56600 32600 55000 4
C 30000 54200 1 90 0 vss-1.sym
N 33100 54400 33100 52100 4
C 32200 56100 1 180 0 resistor-2.sym
{
T 31800 55750 5 10 0 0 180 0 1
device=RESISTOR
T 31900 55800 5 10 1 1 180 0 1
refdes=R8
T 31900 56300 5 10 1 1 180 0 1
value=10k N.C.
T 32200 56100 5 10 0 0 180 0 1
footprint=0603
T 32200 56100 5 10 0 0 90 0 1
lcsc=NOLCSC
}
N 30000 54400 32100 54400 4
N 32200 56000 32600 56000 4
C 32700 56600 1 90 0 resistor-2.sym
{
T 32350 57000 5 10 0 0 90 0 1
device=RESISTOR
T 32400 56900 5 10 1 1 90 0 1
refdes=R9
T 32900 56900 5 10 1 1 90 0 1
value=1k
T 32700 56600 5 10 0 0 90 0 1
footprint=0603
T 32700 56600 5 10 0 0 0 0 1
lcsc=C25804
}
C 32200 55400 1 180 0 resistor-2.sym
{
T 31800 55050 5 10 0 0 180 0 1
device=RESISTOR
T 31900 55100 5 10 1 1 180 0 1
refdes=R10
T 32000 55600 5 10 1 1 180 0 1
value=N.C.
T 32200 55400 5 10 0 0 180 0 1
footprint=0603
T 32200 55400 5 10 0 0 90 0 1
lcsc=NOLCSC
}
N 32200 55300 32600 55300 4
N 31300 55300 31200 55300 4
N 31200 55300 31200 54400 4
C 30000 56200 1 90 1 vdd-1.sym
N 30000 56000 31300 56000 4
C 30300 50000 1 90 1 vdd-1.sym
N 68000 49500 68000 50200 4
N 65500 49500 65500 50200 4
N 65500 49800 68000 49800 4
N 68000 49800 70800 49800 4
N 63000 49500 63000 50200 4
N 60500 49500 60500 50200 4
N 65500 49800 63000 49800 4
N 63000 49800 60500 49800 4
N 60500 49800 58000 49800 4
N 58000 49500 58000 50200 4
N 55500 49500 55500 50200 4
N 53000 49500 53000 50200 4
N 49900 49500 50000 49500 4
N 50000 49500 50000 50200 4
N 58000 49800 55500 49800 4
N 55500 49800 53000 49800 4
N 24100 49500 24100 50300 4
N 26600 49500 26600 50300 4
N 29100 49500 29100 50300 4
N 31600 49500 31600 50300 4
N 34000 49500 34000 50300 4
N 36600 49500 36600 50300 4
N 39100 49500 39100 50300 4
N 24100 49900 26600 49900 4
N 26600 49900 29100 49900 4
N 29100 49900 31600 49900 4
N 31600 49900 34000 49900 4
N 34000 49900 36600 49900 4
N 36600 49900 39100 49900 4
N 49000 49200 49000 49500 4
N 44000 49200 44000 49500 4
N 42400 49500 42400 50300 4
N 44900 49500 45000 49500 4
N 45000 49500 45000 50300 4
N 53000 49800 50000 49800 4
N 50000 49800 45000 49800 4
N 45000 49800 42400 49800 4
N 42400 49800 39100 49800 4
N 47400 49500 47500 49500 4
N 47500 49500 47500 49800 4
N 50900 50700 50900 51300 4
N 45900 50700 45900 50300 4
N 43300 50700 43300 50300 4
