100nF,C8 C9 C10 C29 C30 C31 C32 C33 C34 C35 C24 C25 C26 C27 C28 C23 C17 C16 C15 C14 C13 C12 C11 C1 C2 C3 C4 C5 C6 C7 C18 C19 C20 C21 C22 C41 C40 ,0603,C14663
33ohm,R7 ,0603,C23140
2N7002,Q1 ,SOT23D,C8545
1k,R9 R2 R1 R6 ,0603,C21190
10k_N.C.,R8 ,0603,
pic18f14k22,U1 ,SSOP20_OK,C50638
TP4056,U2 ,SO8,C16581
10uF,C43 C42 ,0805,C15850
10k,R3 ,0603,C25804
FS8205A,U4 ,TSSOP8W,C16052
DW01,U3 ,sot-23-6,C14213
100,R5 ,0603,C22775
Blue,LED37 ,0805,C2293
Red,LED36 ,0805,C84256
Red_button,S1 ,smd-pushbutton,C127509
Green_button,S2 ,smd-pushbutton,C127509
led-ws2811,LED28 LED35 LED34 LED33 LED31 LED30 LED32 LED29 LED27 LED26 LED25 LED24 LED23 LED21 LED20 LED18 LED17 LED16 LED15 LED14 LED12 LED10 LED6 LED5 LED4 LED3 LED2 LED1 LED19 LED13 LED11 LED8 LED7 LED22 LED9 ,led2811,C114587
usb_charge_port,USB1 ,jclc_C404968_usb,C404968
