v 20130925 2
P 0 900 400 900 1 0 0
{
T 455 895 5 10 1 1 0 0 1
pinlabel=OD
T 305 945 5 10 1 1 0 6 1
pinnumber=1
T -1300 800 5 10 0 0 180 6 1
pinseq=1
}
P 0 500 400 500 1 0 0
{
T 455 500 5 10 1 1 0 0 1
pinlabel=CS
T 305 550 5 10 1 1 0 6 1
pinnumber=2
T -1200 400 5 10 0 0 0 0 1
pinseq=2
}
P 0 100 400 100 1 0 0
{
T 455 95 5 10 1 1 0 0 1
pinlabel=OC
T 305 145 5 10 1 1 0 6 1
pinnumber=3
T -1400 100 5 10 0 0 180 6 1
pinseq=3
}
P 2000 100 1600 100 1 0 0
{
T 1545 95 5 10 1 1 0 6 1
pinlabel=TD
T 1695 145 5 10 1 1 0 0 1
pinnumber=4
T 3200 100 5 10 0 0 0 6 1
pinseq=4
}
P 2000 900 1600 900 1 0 0
{
T 1545 895 5 10 1 1 0 6 1
pinlabel=GND
T 1695 945 5 10 1 1 0 0 1
pinnumber=6
T 3200 900 5 10 0 0 180 0 1
pinseq=6
}
P 2000 500 1600 500 1 0 0
{
T 1550 500 5 10 1 1 0 6 1
pinlabel=Vcc
T 1695 545 5 10 1 1 0 0 1
pinnumber=5
T 3300 500 5 10 0 0 0 6 1
pinseq=5
}
T 700 1200 9 10 1 0 0 0 1
DW01
L 400 1400 400 0 3 0 0 0 -1 -1
L 400 0 1600 0 3 0 0 0 -1 -1
L 1600 0 1600 1400 3 0 0 0 -1 -1
L 1600 1400 400 1400 3 0 0 0 -1 -1
T 495 1700 8 10 1 1 0 0 1
refdes=U?
T -5 2100 8 10 0 0 0 0 1
footprint=SOT236
