S8050,Q3 Q1 Q2 Q4 Q5 ,SOT23,C2146
(unknown),(unknown) ,(unknown),
TP4056,U2 ,SO8,C16581
1k,R2 R1 R6 ,0603,C21190
100nF,C40 C41 C8 C9 C10 C29 C30 C31 C32 C33 C34 C35 C24 C25 C26 C27 C28 C23 C17 C16 C15 C14 C13 C12 C11 C1 C2 C3 C4 C5 C6 C7 C18 C19 C20 C21 C22 ,0603,C14663
pic18f14k22,U1 ,SSOP20_OK,C50638
icsp_programming,CONN1 ,JUMPER6,
led-ws2811,LED22 LED26 LED23 LED24 LED25 LED27 LED28 LED29 LED32 LED30 LED31 LED33 LED34 LED35 LED4 LED5 LED6 LED9 LED10 LED11 LED12 LED13 LED14 LED15 LED16 LED17 LED18 LED19 LED20 LED21 LED1 LED2 LED3 LED7 LED8 ,led2811,C139127
10uF,C43 C42 ,0805,C15850
FS8205A,U4 ,TSSOP8W,C16052
DW01,U3 ,sot-23-6,C14213
100,R5 ,0603,C22775
usb_charge_port,USB1 ,micro_usb_b,
battery,CONN2 ,pcb2pin,NOLCSC
10k,R3 ,0603,C25804
Blue,LED37 ,smdled0805,C2293
Red,LED36 ,smdled0805,C84256
Green_button,S2 ,smd-pushbutton,
Red_button,S1 ,smd-pushbutton,
